%YAML 1.1
%TAG !u! tag:unity3d.com,2011:
--- !u!114 &11400000
MonoBehaviour:
  m_ObjectHideFlags: 0
  m_CorrespondingSourceObject: {fileID: 0}
  m_PrefabInstance: {fileID: 0}
  m_PrefabAsset: {fileID: 0}
  m_GameObject: {fileID: 0}
  m_Enabled: 1
  m_EditorHideFlags: 0
  m_Script: {fileID: 11500000, guid: f3a2f86e939d33e48b46b7f2c0f22dac, type: 3}
  m_Name: TestGraph
  m_EditorClassIdentifier: 
  Walls:
  - {fileID: -927199367670048503, guid: bad635124ac152b47b431f587e911a33, type: 3}
  - {fileID: -927199367670048503, guid: ea56623210549524f9e129103749757b, type: 3}
  Ceilings:
  - {fileID: -927199367670048503, guid: 24a1f53e903a51f41b74b0577de6591f, type: 3}
  Floors:
  - {fileID: -927199367670048503, guid: f94a4a3f5bb37ee40a4cd9237ec6e953, type: 3}
  Doors:
  - {fileID: -927199367670048503, guid: ec1ace4f60508d341b974b230b583a9b, type: 3}
  Corners:
  - {fileID: -927199367670048503, guid: 303d67ae6427cec47b2643f28ab23437, type: 3}
  DecoWalls: []
  DecoCeilings: []
  DecoFloors: []
  DecoDoors: []
  DecoCorners: []
